3/6/2018 2:15:42 PM=> GetDestinationsAndHotels
3/6/2018 2:15:42 PM=> GetDestinationsAndHotels-6542
3/6/2018 2:15:43 PM=> GetDestinationsAndHotels-6544
3/6/2018 2:15:43 PM=> GetDestinationsAndHotels-6559
3/6/2018 2:15:43 PM=> GetDestinationsAndHotels-6568
3/6/2018 2:19:00 PM=> GetDestinationsAndHotels
3/6/2018 2:19:00 PM=> GetDestinationsAndHotels-6542
3/6/2018 2:19:00 PM=> GetDestinationsAndHotels-6544
3/6/2018 2:19:00 PM=> GetDestinationsAndHotels-6559
3/6/2018 2:19:00 PM=> GetDestinationsAndHotels-6568
3/6/2018 2:19:41 PM=> GetDestinationsAndHotels
3/6/2018 2:19:41 PM=> GetDestinationsAndHotels-6542
3/6/2018 2:20:41 PM=> The request channel timed out while waiting for a reply after 00:01:00. Increase the timeout value passed to the call to Request or increase the SendTimeout value on the Binding. The time allotted to this operation may have been a portion of a longer timeout.
Server stack trace: 
   at System.ServiceModel.Channels.RequestChannel.Request(Message message, TimeSpan timeout)
   at System.ServiceModel.Dispatcher.RequestChannelBinder.Request(Message message, TimeSpan timeout)
   at System.ServiceModel.Channels.ServiceChannel.Call(String action, Boolean oneway, ProxyOperationRuntime operation, Object[] ins, Object[] outs, TimeSpan timeout)
   at System.ServiceModel.Channels.ServiceChannelProxy.InvokeService(IMethodCallMessage methodCall, ProxyOperationRuntime operation)
   at System.ServiceModel.Channels.ServiceChannelProxy.Invoke(IMessage message)

Exception rethrown at [0]: 
   at System.Runtime.Remoting.Proxies.RealProxy.HandleReturnMessage(IMessage reqMsg, IMessage retMsg)
   at System.Runtime.Remoting.Proxies.RealProxy.PrivateInvoke(MessageData& msgData, Int32 type)
   at Presentation.Web.WCFRestServices.AccommodationService.IOnlineBookabilityService.GetAutoCompleteHotelAndDestinationNames(String searchTerm, Channel channel)
   at Presentation.Web.WCFRestServices.AccommodationService.OnlineBookabilityServiceClient.GetAutoCompleteHotelAndDestinationNames(String searchTerm, Channel channel) in D:\0002463\Chandrakanth\Dataservices\API-int\Presentation.Web.WCFRestServices\Service References\AccommodationService\Reference.cs:line 6869
   at Presentation.Web.WCFRestServices.GetJsonService.GetDestinationsAndHotels(String SearchTerm) in D:\0002463\Chandrakanth\Dataservices\API-int\Presentation.Web.WCFRestServices\GetJsonService.svc.cs:line 6543
3/6/2018 2:23:39 PM=> GetDestinationsAndHotels
3/6/2018 2:23:39 PM=> GetDestinationsAndHotels-6542
3/6/2018 2:23:47 PM=> GetDestinationsAndHotels-6544
3/6/2018 2:23:47 PM=> GetDestinationsAndHotels-6548
3/6/2018 2:23:47 PM=> GetDestinationsAndHotels-6559
3/6/2018 2:23:47 PM=> GetDestinationsAndHotels-6568
