[
	{
		"OptionName":"Availability Zones",
		"Namespace":"aws:autoscaling:asg",
		"Value":"Any"
	},
	{
		"OptionName":"Cooldown",
		"Namespace":"aws:autoscaling:asg",
		"Value":"360"
	},
	{
		"OptionName":"MaxSize",
		"Namespace":"aws:autoscaling:asg",
		"Value":"5"
	},
	{
		"OptionName":"MinSize",
		"Namespace":"aws:autoscaling:asg",
		"Value":"2"
	},
    {
        "OptionName": "EC2KeyName",
        "Namespace": "aws:autoscaling:launchconfiguration",
        "Value": "WebBeanstalkLive"
    },
	{
		"OptionName":"IamInstanceProfile",
		"Namespace":"aws:autoscaling:launchconfiguration",
		"Value":"AllowS3Access"
	},
    {
        "OptionName": "ImageId",
        "Namespace": "aws:autoscaling:launchconfiguration",
        "Value": "ami-27b30154"
    },
	{
		"OptionName":"InstanceType",
		"Namespace":"aws:autoscaling:launchconfiguration",
		"Value":"m4.large"
	},
	{
		"OptionName":"MonitoringInterval",
		"Namespace":"aws:autoscaling:launchconfiguration",
		"Value":"5 minute"
	},
    {
        "OptionName": "SecurityGroups",
        "Namespace": "aws:autoscaling:launchconfiguration",
        "Value": "sg-e883108c"
    },	
	{
		"OptionName": "RollingUpdateEnabled", 
		"Namespace": "aws:autoscaling:updatepolicy:rollingupdate", 
		"Value": "false"
	},
	{
		"OptionName":"BreachDuration",
		"Namespace":"aws:autoscaling:trigger",
		"Value":"10"
	},
	{
		"OptionName":"EvaluationPeriods",
		"Namespace":"aws:autoscaling:trigger",
		"Value":"2"
	},
	{
		"OptionName":"LowerBreachScaleIncrement",
		"Namespace":"aws:autoscaling:trigger",
		"Value":"-1"
	},
	{
		"OptionName":"LowerThreshold",
		"Namespace":"aws:autoscaling:trigger",
		"Value":"20"
	},
	{
		"OptionName":"MeasureName",
		"Namespace":"aws:autoscaling:trigger",
		"Value":"CPUUtilization"
	},
	{
		"OptionName":"Period",
		"Namespace":"aws:autoscaling:trigger",
		"Value":"5"
	},
	{
		"OptionName":"Statistic",
		"Namespace":"aws:autoscaling:trigger",
		"Value":"Average"
	},
	{
		"OptionName":"Unit",
		"Namespace":"aws:autoscaling:trigger",
		"Value":"Percent"
	},
	{
		"OptionName":"UpperBreachScaleIncrement",
		"Namespace":"aws:autoscaling:trigger",
		"Value":"1"
	},
	{
		"OptionName":"UpperThreshold",
		"Namespace":"aws:autoscaling:trigger",
		"Value":"40"
	},
	{
		"OptionName":"AssociatePublicIpAddress",
		"Namespace":"aws:ec2:vpc",
		"Value":"false"
	},
	{
		"OptionName":"ELBScheme",
		"Namespace":"aws:ec2:vpc",
		"Value":"internal"
	},
	{
		"OptionName":"ELBSubnets",
		"Namespace":"aws:ec2:vpc",
		"Value":"subnet-51f88938"
	},
	{
		"OptionName":"Subnets",
		"Namespace":"aws:ec2:vpc",
		"Value":"subnet-54f8893d"
	},
	{
		"OptionName":"Enable 32-bit Applications",
		"Namespace":"aws:elasticbeanstalk:container:dotnet:apppool",
		"Value":"False"
	},
	{
		"OptionName":"HealthyThreshold",
		"Namespace":"aws:elb:healthcheck",
		"Value":"2"
	},
	{
		"OptionName":"Interval",
		"Namespace":"aws:elb:healthcheck",
		"Value":"30"
	},
	{
		"OptionName":"Target",
		"Namespace":"aws:elb:healthcheck",
		"Value":"Http:80/AccommodationB2BXmlServices.svc"
	},
	{
		"OptionName":"Timeout",
		"Namespace":"aws:elb:healthcheck",
		"Value":"5"
	},
	{
		"OptionName":"UnhealthyThreshold",
		"Namespace":"aws:elb:healthcheck",
		"Value":"10"
	},
	{
		"OptionName":"LoadBalancerHTTPPort",
		"Namespace":"aws:elb:loadbalancer",
		"Value":"80"
	},
	{
		"OptionName":"LoadBalancerPortProtocol",
		"Namespace":"aws:elb:loadbalancer",
		"Value":"HTTP"
	},
	{
		"OptionName":"Stickiness Cookie Expiration",
		"Namespace":"aws:elb:policies",
		"Value":"0"
	},
	{
		"OptionName":"Stickiness Policy",
		"Namespace":"aws:elb:policies",
		"Value":"false"
	},
	{
		"OptionName": "BatchSize", 
		"Namespace": "aws:elasticbeanstalk:command", 
		"Value": "100"
	},	
	{
		"OptionName": "BatchSizeType", 
		"Namespace": "aws:elasticbeanstalk:command", 
		"Value": "Percentage"
	},
	{
		"OptionName": "VPCId", 
		"Namespace": "aws:ec2:vpc", 
		"Value": "vpc-58f88931"
	}, 
	{
		"OptionName": "Notification Endpoint", 
		"Namespace": "aws:elasticbeanstalk:sns:topics", 
		"Value": "itsupport@alpharooms.com"
	},	
]