4/20/2018 3:00:56 PM=>System.InvalidOperationException: Sequence contains no elements
   at System.Linq.Enumerable.Last[TSource](IEnumerable`1 source)
   at Presentation.Web.WCFRestServices.MyBooking.TopDogManager.GetBookingDetails(Basket basket, String BookingReference, String Surname, String DepartureDate, Boolean checkQualityChecked) in D:\0002463\Chandrakanth\Dataservices\API-Prod\Presentation.Web.WCFRestServices\MyBooking\TopDogManager.cs:line 616
   at Presentation.Web.WCFRestServices.MyBooking.TopDogManager.GetBasketFromTopDog(String BookingReference, String Surname, String DepartureDate, Boolean isAsync, Boolean checkAuditCompleted) in D:\0002463\Chandrakanth\Dataservices\API-Prod\Presentation.Web.WCFRestServices\MyBooking\TopDogManager.cs:line 144
   at Presentation.Web.WCFRestServices.MyBooking.TopDogManager.GetBasket(String BookingReference, String Surname, String DepartureDate, Boolean checkAuditCompleted, Boolean GetBookingFromTD) in D:\0002463\Chandrakanth\Dataservices\API-Prod\Presentation.Web.WCFRestServices\MyBooking\TopDogManager.cs:line 75
   at Presentation.Web.WCFRestServices.GetJsonService.GetBasket(String BookingReference, String Surname, String DepartureDate) in D:\0002463\Chandrakanth\Dataservices\API-Prod\Presentation.Web.WCFRestServices\GetJsonService.svc.cs:line 1792
4/20/2018 3:05:17 PM=>System.InvalidOperationException: Sequence contains no elements
   at System.Linq.Enumerable.Last[TSource](IEnumerable`1 source)
   at Presentation.Web.WCFRestServices.MyBooking.TopDogManager.GetBookingDetails(Basket basket, String BookingReference, String Surname, String DepartureDate, Boolean checkQualityChecked) in D:\0002463\Chandrakanth\Dataservices\API-Prod\Presentation.Web.WCFRestServices\MyBooking\TopDogManager.cs:line 616
   at Presentation.Web.WCFRestServices.MyBooking.TopDogManager.GetBasketFromTopDog(String BookingReference, String Surname, String DepartureDate, Boolean isAsync, Boolean checkAuditCompleted) in D:\0002463\Chandrakanth\Dataservices\API-Prod\Presentation.Web.WCFRestServices\MyBooking\TopDogManager.cs:line 144
   at Presentation.Web.WCFRestServices.MyBooking.TopDogManager.GetBasket(String BookingReference, String Surname, String DepartureDate, Boolean checkAuditCompleted, Boolean GetBookingFromTD) in D:\0002463\Chandrakanth\Dataservices\API-Prod\Presentation.Web.WCFRestServices\MyBooking\TopDogManager.cs:line 75
   at Presentation.Web.WCFRestServices.GetJsonService.GetBasket(String BookingReference, String Surname, String DepartureDate) in D:\0002463\Chandrakanth\Dataservices\API-Prod\Presentation.Web.WCFRestServices\GetJsonService.svc.cs:line 1792
